Bike_share_case_study_md
…
Using this visualisation - we can clearly see that through both memberships and casual users, there are clear trends throughout the year for the use of the bikeshare program. As a result of the geographical location, Chicago, there is a significant decline in the winter months and many more users in the summer months.

Number of rides for users by day_of_week

tripdata_cleaned %>% 
  group_by(ride_id, day_of_week) %>% 
  summarize(number_of_rides=n())

## # A tibble: 4,015,456 x 3
## # Groups:   ride_id [4,015,456]
##    ride_id          day_of_week number_of_rides
##    <chr>                  <dbl>           <int>
##  1 000001004784CD35           4               1
##  2 000002EBE159AE82           3               1
##  3 00001A81D056B01B           4               1
##  4 00001DCF2BC423F4           1               1
##  5 00001E17DEF40948           4               1
##  6 00002279D7D315A5           7               1
##  7 0000370913F39D28           5               1
##  8 0000376F8A298CB2           6               1
##  9 000038F6910D8F7F           4               1
## 10 000039C9815A2F25           5               1
## #  with 4,015,446 more rows
…
